<svg xmlns="http://www.w3.org/2000/svg" width="24.366" height="27.844" viewBox="0 0 24.366 27.844">
  <g id="_631b145673b68d185a466d4e_csv" data-name="631b145673b68d185a466d4e_csv" transform="translate(0 -2.281)">
    <path id="path4" d="M37.528,2.281a1.547,1.547,0,0,0-1.547,1.547V28.579a1.547,1.547,0,0,0,1.547,1.547h17.79a1.546,1.546,0,0,0,1.547-1.547V9.445L49.408,2.281Z" transform="translate(-32.499 0)" fill="#bfe582"/>
    <g id="g10" transform="translate(0 2.281)">
      <path id="path6" d="M274.614,100.955H268.7a1.547,1.547,0,0,1-1.547-1.547V93.791Z" transform="translate(-250.249 -93.791)" fill="#89c429"/>
      <path id="path8" d="M109.033,204.216A1.785,1.785,0,0,1,107.249,206H94.218a1.785,1.785,0,0,1-1.785-1.785v-5.453a1.784,1.784,0,0,1,1.785-1.785h13.031a1.785,1.785,0,0,1,1.785,1.785Z" transform="translate(-92.433 -186.992)" fill="#89c429"/>
    </g>
    <g id="text4562" transform="translate(2.952 15.211)">
      <path id="path6214" d="M33.386,139.154a2.232,2.232,0,0,1-.5.188,2.294,2.294,0,0,1-.544.064A1.861,1.861,0,0,1,31,138.934a1.914,1.914,0,0,1,0-2.568,1.856,1.856,0,0,1,1.341-.474,2.294,2.294,0,0,1,.544.064,2.23,2.23,0,0,1,.5.188v.7a1.905,1.905,0,0,0-.479-.243,1.588,1.588,0,0,0-.5-.077.935.935,0,0,0-.735.3,1.4,1.4,0,0,0,0,1.649.935.935,0,0,0,.735.3,1.589,1.589,0,0,0,.5-.077,1.906,1.906,0,0,0,.479-.243Z" transform="translate(-30.505 -135.892)" fill="#fff"/>
      <path id="path6216" d="M70.2,136.06v.717a3.109,3.109,0,0,0-.544-.188,2.157,2.157,0,0,0-.5-.064.958.958,0,0,0-.463.086.288.288,0,0,0-.15.268.254.254,0,0,0,.1.213,1,1,0,0,0,.367.129l.372.075a1.606,1.606,0,0,1,.8.345.875.875,0,0,1,.238.658,1.018,1.018,0,0,1-.333.835,1.576,1.576,0,0,1-1.014.272,3.476,3.476,0,0,1-.646-.061,4,4,0,0,1-.649-.181v-.737a3.351,3.351,0,0,0,.626.261,2.143,2.143,0,0,0,.585.086.829.829,0,0,0,.438-.1.3.3,0,0,0,.152-.272.3.3,0,0,0-.1-.245,1.037,1.037,0,0,0-.411-.154l-.338-.075a1.461,1.461,0,0,1-.744-.347.877.877,0,0,1-.234-.642.956.956,0,0,1,.327-.778,1.431,1.431,0,0,1,.939-.272,3.969,3.969,0,0,1,.574.043,5.087,5.087,0,0,1,.61.125Z" transform="translate(-64.143 -135.893)" fill="#fff"/>
      <path id="path6218" d="M99.13,136.525h.878l.9,2.5.9-2.5h.878l-1.254,3.386h-1.041Z" transform="translate(-92.489 -136.464)" fill="#fff"/>
    </g>
  </g>
</svg>
