<svg xmlns="http://www.w3.org/2000/svg" width="20.75" height="20.75" viewBox="0 0 20.75 20.75">
  <g id="Group_4737" data-name="Group 4737" transform="translate(-41 -158.497)">
    <g id="Group_105" data-name="Group 105">
      <g id="Group_37" data-name="Group 37" transform="translate(-6.25 25.372)">
        <path id="Icon_material-dashboard" data-name="Icon material-dashboard" d="M4.5,16.028h9.222V4.5H4.5Zm0,9.222h9.222V18.333H4.5Zm11.528,0H25.25V13.722H16.028Zm0-20.75v6.917H25.25V4.5Z" transform="translate(42.75 128.625)" fill="#009deb"/>
      </g>
    </g>
  </g>
</svg>
