<svg xmlns="http://www.w3.org/2000/svg" width="25.044" height="22.69" viewBox="0 0 25.044 22.69">
  <path id="Icon_feather-filter" data-name="Icon feather-filter" d="M26.544,4.5H3l9.418,11.136v7.7l4.709,2.354V15.636Z" transform="translate(-2.25 -3.75)" fill="none" stroke="#009deb" stroke-linecap="round" stroke-linejoin="round" stroke-width="1.5"/>
</svg>
