<svg xmlns="http://www.w3.org/2000/svg" width="26.942" height="22.22" viewBox="0 0 26.942 22.22">
  <g id="Icon_feather-download-cloud" data-name="Icon feather-download-cloud" transform="translate(-0.313 -3.458)">
    <path id="Path_389" data-name="Path 389" d="M12,25.5l4.485,4.485L20.97,25.5" transform="translate(-2.654 -5.307)" fill="none" stroke="#009deb" stroke-linecap="round" stroke-linejoin="round" stroke-width="2"/>
    <path id="Path_390" data-name="Path 390" d="M18,18V28.092" transform="translate(-4.169 -3.413)" fill="none" stroke="#009deb" stroke-linecap="round" stroke-linejoin="round" stroke-width="2"/>
    <path id="Path_391" data-name="Path 391" d="M23.788,21.416a5.606,5.606,0,0,0-3.229-10.192H19.146A8.97,8.97,0,1,0,3.739,19.4" transform="translate(0)" fill="none" stroke="#009deb" stroke-linecap="round" stroke-linejoin="round" stroke-width="2"/>
  </g>
</svg>
